<?xml version="1.0" encoding="UTF-8"?>
<svg width="512" height="512" viewBox="0 0 64 64" xmlns="http://www.w3.org/2000/svg">
<g data-name="Filled outline">
<path d="M32,12a1,1,0,0,1-1-1V8a1,1,0,0,1,2,0v3A1,1,0,0,1,32,12Z" fill="#9362f5"/>
<path d="m32 54c7.85 0 14.524-1.67 17-4h-34c2.476 2.33 9.15 4 17 4z" fill="#f98c96"/>
<path d="M14,29c0,.338.032.667.051,1h35.9c.019-.333.051-.662.051-1a18,18,0,0,0-36,0Z" fill="#f98c96"/>
<rect x="3" y="34" width="58" height="12" rx="6" ry="6" fill="#dd3e46"/>
<circle cx="32" cy="40" r="2" fill="#fff"/>
<circle cx="22" cy="40" r="2" fill="#fff"/>
<circle cx="12" cy="40" r="2" fill="#fff"/>
<circle cx="52" cy="40" r="2" fill="#fff"/>
<circle cx="42" cy="40" r="2" fill="#fff"/>
<polygon points="52 50 12 50 10 46 54 46" fill="#f1d77e"/>
<polygon points="54 34 10 34 12 30 52 30" fill="#f1d77e"/>
<rect x="43" y="25" width="2" height="2" fill="#fff"/>
<path d="M43.02,23.2C42.159,18.892,37.73,16,32,16V14c6.711,0,11.927,3.538,12.98,8.8Z" fill="#fff"/>
<rect x="58" y="11" width="2" height="2" fill="#dd3e46"/>
<rect x="58" y="15" width="2" height="2" fill="#dd3e46"/>
<rect x="56" y="13" width="2" height="2" fill="#dd3e46"/>
<rect x="60" y="13" width="2" height="2" fill="#dd3e46"/>
<rect x="4" y="51" width="2" height="2" fill="#dd3e46"/>
<rect x="4" y="55" width="2" height="2" fill="#dd3e46"/>
<rect x="2" y="53" width="2" height="2" fill="#dd3e46"/>
<rect x="6" y="53" width="2" height="2" fill="#dd3e46"/>
<rect x="13" y="56" width="2" height="2" fill="#dd3e46"/>
<rect x="13" y="60" width="2" height="2" fill="#dd3e46"/>
<rect x="11" y="58" width="2" height="2" fill="#dd3e46"/>
<rect x="15" y="58" width="2" height="2" fill="#dd3e46"/>
<rect x="52" y="2" width="2" height="2" fill="#dd3e46"/>
<rect x="52" y="6" width="2" height="2" fill="#dd3e46"/>
<rect x="50" y="4" width="2" height="2" fill="#dd3e46"/>
<rect x="54" y="4" width="2" height="2" fill="#dd3e46"/>
<path d="M55,33h-.382L52.9,29.553A1,1,0,0,0,52,29H51A19.007,19.007,0,0,0,33,10.051V8a1,1,0,0,0-2,0v2.051A19.007,19.007,0,0,0,13,29H12a1,1,0,0,0-.895.553L9.382,33H9A7,7,0,0,0,9,47h.382l1.723,3.447A1,1,0,0,0,12,51h2.638C17.581,53.438,24.3,55,32,55s14.419-1.562,17.362-4H52a1,1,0,0,0,.9-.553L54.618,47H55a7,7,0,0,0,0-14ZM32,12A17.019,17.019,0,0,1,49,29H15A17.019,17.019,0,0,1,32,12ZM12.618,31H51.382l1,2H11.618ZM32,53a39.776,39.776,0,0,1-13.257-2H45.257A39.776,39.776,0,0,1,32,53Zm19.382-4H12.618l-1-2H52.382ZM55,45H9A5,5,0,0,1,9,35H55a5,5,0,0,1,0,10Z"/>
<path d="m32 37a3 3 0 1 0 3 3 3 3 0 0 0 -3 -3zm0 4a1 1 0 1 1 1 -1 1 1 0 0 1 -1 1z"/>
<path d="m22 37a3 3 0 1 0 3 3 3 3 0 0 0 -3 -3zm0 4a1 1 0 1 1 1 -1 1 1 0 0 1 -1 1z"/>
<path d="m12 37a3 3 0 1 0 3 3 3 3 0 0 0 -3 -3zm0 4a1 1 0 1 1 1 -1 1 1 0 0 1 -1 1z"/>
<path d="m52 37a3 3 0 1 0 3 3 3 3 0 0 0 -3 -3zm0 4a1 1 0 1 1 1 -1 1 1 0 0 1 -1 1z"/>
<path d="m42 37a3 3 0 1 0 3 3 3 3 0 0 0 -3 -3zm0 4a1 1 0 1 1 1 -1 1 1 0 0 1 -1 1z"/>
<rect x="43" y="25" width="2" height="2"/>
<path d="M44.98,22.8C43.927,17.538,38.711,14,32,14v2c5.73,0,10.159,2.892,11.02,7.2Z"/>
<rect x="58" y="11" width="2" height="2"/>
<rect x="58" y="15" width="2" height="2"/>
<rect x="56" y="13" width="2" height="2"/>
<rect x="60" y="13" width="2" height="2"/>
<rect x="4" y="51" width="2" height="2"/>
<rect x="4" y="55" width="2" height="2"/>
<rect x="2" y="53" width="2" height="2"/>
<rect x="6" y="53" width="2" height="2"/>
<rect x="13" y="56" width="2" height="2"/>
<rect x="13" y="60" width="2" height="2"/>
<rect x="11" y="58" width="2" height="2"/>
<rect x="15" y="58" width="2" height="2"/>
<rect x="52" y="2" width="2" height="2"/>
<rect x="52" y="6" width="2" height="2"/>
<rect x="50" y="4" width="2" height="2"/>
<rect x="54" y="4" width="2" height="2"/>
</g>
</svg>
